…
<span id='tibble_obj'></span>

# [tbl对象](#home)

tibble包提供了一个tbl_df类，它比传统的data.frame具有更严格的检查和更好的格式。as_tibble是一个新的S3更加通用也更加高效的函数，非常适合处理matirx和data.frame对象。它可以将普通的matrix或data.frame的对象转换成tbl_df类的对象。dplyr包中的函数都是基于tbl_df对象实现的。


 - 将data.frame转换成tbl_df
 
 ```R
library(dplyr)
tbl_df(mtcars)
 ```
 ```R
## A tibble: 32 x 11
#     mpg   cyl  disp    hp  drat    wt  qsec    vs    am  gear  carb
#  * <dbl> <dbl> <dbl> <dbl> <dbl> <dbl> <dbl> <dbl> <dbl> <dbl> <dbl>
#  1  21.0  6.00   160 110    3.90  2.62  16.5  0     1.00  4.00  4.00
#  2  21.0  6.00   160 110    3.90  2.88  17.0  0     1.00  4.00  4.00
#  3  22.8  4.00   108  93.0  3.85  2.32  18.6  1.00  1.00  4.00  1.00
#  4  21.4  6.00   258 110    3.08  3.22  19.4  1.00  0     3.00  1.00
#  5  18.7  8.00   360 175    3.15  3.44  17.0  0     0     3.00  2.00
#  6  18.1  6.00   225 105    2.76  3.46  20.2  1.00  0     3.00  1.00
#  7  14.3  8.00   360 245    3.21  3.57  15.8  0     0     3.00  4.00
#  8  24.4  4.00   147  62.0  3.69  3.19  20.0  1.00  0     4.00  2.00
#  9  22.8  4.00   141  95.0  3.92  3.15  22.9  1.00  0     4.00  2.00
# 10  19.2  6.00   168 123    3.92  3.44  18.3  1.00  0     4.00  4.00
## ... with 22 more rows
 ```
也可以使用as_tibble函数，如下：
```R
as_tibble(mtcars)
```
```R
##  A tibble: 32 x 11
#      mpg   cyl  disp    hp  drat    wt  qsec    vs    am  gear  carb
#  * <dbl> <dbl> <dbl> <dbl> <dbl> <dbl> <dbl> <dbl> <dbl> <dbl> <dbl>
#  1  21.0  6.00   160 110    3.90  2.62  16.5  0     1.00  4.00  4.00
#  2  21.0  6.00   160 110    3.90  2.88  17.0  0     1.00  4.00  4.00
#  3  22.8  4.00   108  93.0  3.85  2.32  18.6  1.00  1.00  4.00  1.00
#  4  21.4  6.00   258 110    3.08  3.22  19.4  1.00  0     3.00  1.00
#  5  18.7  8.00   360 175    3.15  3.44  17.0  0     0     3.00  2.00
#  6  18.1  6.00   225 105    2.76  3.46  20.2  1.00  0     3.00  1.00
#  7  14.3  8.00   360 245    3.21  3.57  15.8  0     0     3.00  4.00
#  8  24.4  4.00   147  62.0  3.69  3.19  20.0  1.00  0     4.00  2.00
#  9  22.8  4.00   141  95.0  3.92  3.15  22.9  1.00  0     4.00  2.00
# 10  19.2  6.00   168 123    3.92  3.44  18.3  1.00  0     4.00  4.00
# ... with 22 more rows
```
…
<span id='sjcz_blsx'></span>
### [变量筛选](#home)

使用select函数可筛选指定的变量，比subset函数更灵活的是，在选择变量的同时也可以重新命名变量。
我们首先将iris数据集转换成tbl对象，如下：
```R
iris <- as_tibble(iris) 
```
使用select函数，选取iris数据中以Petal开头的变量，代码如下：
```R
iris %>% select(starts_with("Petal"))
```
```R
## A tibble: 150 x 2
#   Petal.Length Petal.Width
#          <dbl>       <dbl>
# 1         1.40       0.200
# 2         1.40       0.200
# 3         1.30       0.200
# 4         1.50       0.200
# 5         1.40       0.200
# 6         1.70       0.400
# 7         1.40       0.300
# 8         1.50       0.200
# 9         1.40       0.200
#10         1.50       0.100
# ... with 140 more rows
```
使用select函数，选取iris数据中以Width结束的变量，代码如下：
```R
iris %>% select(ends_with("Width"))
```
```R
## A tibble: 150 x 2
#   Sepal.Width Petal.Width
#         <dbl>       <dbl>
# 1        3.50       0.200
# 2        3.00       0.200
# 3        3.20       0.200
# 4        3.10       0.200
# 5        3.60       0.200
# 6        3.90       0.400
# 7        3.40       0.300
# 8        3.40       0.200
# 9        2.90       0.200
#10        3.10       0.100
# ... with 140 more rows
```
使用select函数，选择iris数据中包含etal字符中的变量，代码如下：
```R
iris %>% select(contains("etal"))
```
```R
## A tibble: 150 x 2
#   Petal.Length Petal.Width
#          <dbl>       <dbl>
# 1         1.40       0.200
# 2         1.40       0.200
# 3         1.30       0.200
# 4         1.50       0.200
# 5         1.40       0.200
# 6         1.70       0.400
# 7         1.40       0.300
# 8         1.50       0.200
# 9         1.40       0.200
#10         1.50       0.100
# ... with 140 more rows
```
同理，可以starts_with、ends_with、contains前面加负号，表示排除满足条件的变量。
everything()函数可以选取数据集中的所有变量，通常可指定几个变量，再使用everything()函数以达到对亦量重新排列的效果，案例如下：
```R
iris %>% select(Species, everything())
```
```R
## A tibble: 150 x 5
#   Species Sepal.Length Sepal.Width Petal.Length Petal.Width
#   <fct>          <dbl>       <dbl>        <dbl>       <dbl>
# 1 setosa          5.10        3.50         1.40       0.200
# 2 setosa          4.90        3.00         1.40       0.200
# 3 setosa          4.70        3.20         1.30       0.200
# 4 setosa          4.60        3.10         1.50       0.200
# 5 setosa          5.00        3.60         1.40       0.200
# 6 setosa          5.40        3.90         1.70       0.400
# 7 setosa          4.60        3.40         1.40       0.300
# 8 setosa          5.00        3.40         1.50       0.200
# 9 setosa          4.40        2.90         1.40       0.200
#10 setosa          4.90        3.10         1.50       0.100
# ... with 140 more rows
```
可见，everything()函数，将数据中Species之外的所有变量提取了出来。最终达到重排列的效果。
不过，对于匹配变量，我们还可以使用正则表达式来做，请看如下代码：
```R
iris %>% select(matches(".t."))
```
```R
## A tibble: 150 x 4
#   Sepal.Length Sepal.Width Petal.Length Petal.Width
#          <dbl>       <dbl>        <dbl>       <dbl>
# 1         5.10        3.50         1.40       0.200
# 2         4.90        3.00         1.40       0.200
# 3         4.70        3.20         1.30       0.200
# 4         4.60        3.10         1.50       0.200
# 5         5.00        3.60         1.40       0.200
# 6         5.40        3.90         1.70       0.400
# 7         4.60        3.40         1.40       0.300
# 8         5.00        3.40         1.50       0.200
# 9         4.40        2.90         1.40       0.200
#10         4.90        3.10         1.50       0.100
## ... with 140 more rows
```
我们可以通过one_of函数，来选取指定的变量，代码如下：
```R
iris %>% select(one_of(c("Petal.Length", "Species")))
```
```R
## A tibble: 150 x 2
#   Petal.Length Species
#          <dbl> <fct>  
# 1         1.40 setosa 
# 2         1.40 setosa 
# 3         1.30 setosa 
# 4         1.50 setosa 
# 5         1.40 setosa 
# 6         1.70 setosa 
# 7         1.40 setosa 
# 8         1.50 setosa 
# 9         1.40 setosa 
#10         1.50 setosa 
## ... with 140 more rows
```
…
# 3 0.976 0.520  0.123  
# 4 0.719 0.935  0.912  
# 5 0.809 0.382  0.00882
# 6 0.908 0.988  0.537  
# 7 0.992 0.382  0.813  
# 8 0.703 0.785  0.419  
# 9 0.683 0.0841 0.278  
#10 0.486 0.0959 0.186  
```
另外，我们还可以通过指定数据中起始和结束列名来选择变量，代码如下：
```R
mtcars %>% tbl_df %>% select(disp:wt)
```
```R
## A tibble: 32 x 4
#    disp    hp  drat    wt
# * <dbl> <dbl> <dbl> <dbl>
# 1   160 110    3.90  2.62
# 2   160 110    3.90  2.88
# 3   108  93.0  3.85  2.32
# 4   258 110    3.08  3.22
# 5   360 175    3.15  3.44
# 6   225 105    2.76  3.46
# 7   360 245    3.21  3.57
# 8   147  62.0  3.69  3.19
# 9   141  95.0  3.92  3.15
#10   168 123    3.92  3.44
## ... with 22 more rows
```
…
